D:\Sendo_Auto_Source\Seller\sellerapi2\src\test\java\sku\TC_Product_AddProduct.java
D:\Sendo_Auto_Source\Seller\sellerapi2\src\test\java\shop\TC_Carrier.java
D:\Sendo_Auto_Source\Seller\sellerapi2\src\test\java\shop\TC_NewsPublic.java
D:\Sendo_Auto_Source\Seller\sellerapi2\src\test\java\shop\TC_Dashboard.java
D:\Sendo_Auto_Source\Seller\sellerapi2\src\test\java\shopconfig\TC_MobilePayment.java
D:\Sendo_Auto_Source\Seller\sellerapi2\src\test\java\MobileLogin.java
D:\Sendo_Auto_Source\Seller\sellerapi2\src\test\java\sku\TC_Products_RequestExport.java
D:\Sendo_Auto_Source\Seller\sellerapi2\src\test\java\shopconfig\TC_Blog_AddBlog.java
D:\Sendo_Auto_Source\Seller\sellerapi2\src\test\java\sku\TC_Product_UpdateDraft.java
D:\Sendo_Auto_Source\Seller\sellerapi2\src\test\java\sku\TC_Product_CreateDraft_GTKTT.java
D:\Sendo_Auto_Source\Seller\sellerapi2\src\test\java\shop\TC_News.java
D:\Sendo_Auto_Source\Seller\sellerapi2\src\test\java\order\TC_Order_SalesOrderNote.java
D:\Sendo_Auto_Source\Seller\sellerapi2\src\test\java\shopconfig\TC_Payment.java
D:\Sendo_Auto_Source\Seller\sellerapi2\src\test\java\sku\TC_Product_AddProduct_GTKTT.java
D:\Sendo_Auto_Source\Seller\sellerapi2\src\test\java\shop\TC_BadBuyer.java
D:\Sendo_Auto_Source\Seller\sellerapi2\src\test\java\sku\TC_Products_ProductImport.java
D:\Sendo_Auto_Source\Seller\sellerapi2\src\test\java\sku\TC_Product_ChangeStock.java
D:\Sendo_Auto_Source\Seller\sellerapi2\src\test\java\sku\TC_Product_QuickEdit.java
D:\Sendo_Auto_Source\Seller\sellerapi2\src\test\java\shop\TC_DropOff.java
D:\Sendo_Auto_Source\Seller\sellerapi2\src\test\java\sku\TC_Album_UploadImage.java
D:\Sendo_Auto_Source\Seller\sellerapi2\src\test\java\sku\TC_Products_ProductApplyImport.java
D:\Sendo_Auto_Source\Seller\sellerapi2\src\test\java\shopconfig\TC_ShippingConfig.java
D:\Sendo_Auto_Source\Seller\sellerapi2\src\test\java\runner\RunnerExecution.java
D:\Sendo_Auto_Source\Seller\sellerapi2\src\test\java\shop\TC_PrivateOffer.java
D:\Sendo_Auto_Source\Seller\sellerapi2\src\test\java\order\TC_Label_ManageLabel.java
D:\Sendo_Auto_Source\Seller\sellerapi2\src\test\java\sku\TC_Product_UpdateDraft_GTKTT.java
D:\Sendo_Auto_Source\Seller\sellerapi2\src\test\java\shop\TC_Login.java
D:\Sendo_Auto_Source\Seller\sellerapi2\src\test\java\sku\TC_Product_QuickEdit_GTKTT.java
D:\Sendo_Auto_Source\Seller\sellerapi2\src\test\java\order\TC_Order_ConfirmOrder.java
D:\Sendo_Auto_Source\Seller\sellerapi2\src\test\java\order\TC_Order_DelayOrder.java
D:\Sendo_Auto_Source\Seller\sellerapi2\src\test\java\shopconfig\TC_Installment.java
D:\Sendo_Auto_Source\Seller\sellerapi2\src\test\java\shop\TC_Register_Step02.java
D:\Sendo_Auto_Source\Seller\sellerapi2\src\test\java\shop\TC_SelfTransport.java
D:\Sendo_Auto_Source\Seller\sellerapi2\src\test\java\order\TC_Label_EditLabel.java
D:\Sendo_Auto_Source\Seller\sellerapi2\src\test\java\sku\TC_Product_CopyProduct.java
D:\Sendo_Auto_Source\Seller\sellerapi2\src\test\java\shop\TC_Register_Step01.java
D:\Sendo_Auto_Source\Seller\sellerapi2\src\test\java\sku\TC_Album_AddAlbum.java
D:\Sendo_Auto_Source\Seller\sellerapi2\src\test\java\order\TC_Order_CancelOrder.java
D:\Sendo_Auto_Source\Seller\sellerapi2\src\test\java\shopconfig\TC_Banner_AddBanner.java
D:\Sendo_Auto_Source\Seller\sellerapi2\src\test\java\shop\TC_ShopInfo.java
D:\Sendo_Auto_Source\Seller\sellerapi2\src\test\java\sku\TC_Product_EditProduct_GTKTT.java
D:\Sendo_Auto_Source\Seller\sellerapi2\src\test\java\shop\TC_Voucher_VoucherList.java
D:\Sendo_Auto_Source\Seller\sellerapi2\src\test\java\sku\TC_Product_CreateDraft.java
D:\Sendo_Auto_Source\Seller\sellerapi2\src\test\java\order\TC_Order_CreateOrder.java
D:\Sendo_Auto_Source\Seller\sellerapi2\src\test\java\shop\TC_PhoneRegister.java
D:\Sendo_Auto_Source\Seller\sellerapi2\src\test\java\sku\TC_Product_EditProduct.java
D:\Sendo_Auto_Source\Seller\sellerapi2\src\test\java\order\TC_Order_RejectSalesOrder.java
D:\Sendo_Auto_Source\Seller\sellerapi2\src\test\java\shopconfig\TC_PaymentOnline.java
D:\Sendo_Auto_Source\Seller\sellerapi2\src\test\java\shopconfig\TC_Blog_EditBlog.java
D:\Sendo_Auto_Source\Seller\sellerapi2\src\test\java\order\TC_Label_AddLabel.java
D:\Sendo_Auto_Source\Seller\sellerapi2\src\test\java\order\TC_Order_OrderList.java
D:\Sendo_Auto_Source\Seller\sellerapi2\src\test\java\shop\TC_Gallery_Upload.java
D:\Sendo_Auto_Source\Seller\sellerapi2\src\test\java\sku\TC_Product_ProductList.java
D:\Sendo_Auto_Source\Seller\sellerapi2\src\test\java\shopconfig\TC_AllowCheck.java
D:\Sendo_Auto_Source\Seller\sellerapi2\src\test\java\sku\TC_Album_EditAlbum.java
D:\Sendo_Auto_Source\Seller\sellerapi2\src\test\java\shop\TC_Voucher_EditVoucher.java
D:\Sendo_Auto_Source\Seller\sellerapi2\src\test\java\order\TC_Order_DeclarePrice.java
D:\Sendo_Auto_Source\Seller\sellerapi2\src\test\java\shop\TC_Voucher_AddVoucher.java
D:\Sendo_Auto_Source\Seller\sellerapi2\src\test\java\shopconfig\TC_Banner_EditBanner.java
